Candidate 1

Candidate 5

Candidate 1

Candidate 2

Candidate 7

Candidate 3

Candidate 5

Candidate 10

Candidate 8

Candidate 5
Candidate 17

Candidate 5

Candidate 9

Candidate 1

Candidate 2

Candidate 8

Candidate 8

Candidate 8

Candidate 12

Candidate 4

Candidate 3
